User-Id,First-Name,Last-Name,Rating
0,FirstName 0,LastName 0,275
1,FirstName 1,LastName 1,63
2,FirstName 2,LastName 2,100
3,FirstName 3,LastName 3,237
4,FirstName 4,LastName 4,236
5,FirstName 5,LastName 5,107
6,FirstName 6,LastName 6,60
7,FirstName 7,LastName 7,218
8,FirstName 8,LastName 8,93
9,FirstName 9,LastName 9,68
