User-Id,First-Name,Last-Name,Rating
0,FirstName 0,LastName 0,279
1,FirstName 1,LastName 1,223
2,FirstName 2,LastName 2,206
3,FirstName 3,LastName 3,25
4,FirstName 4,LastName 4,298
5,FirstName 5,LastName 5,4
6,FirstName 6,LastName 6,102
7,FirstName 7,LastName 7,121
8,FirstName 8,LastName 8,44
9,FirstName 9,LastName 9,259
